package KieRule;
import com.fer.coursemanagement.dto.LectureDTO;
import org.apache.commons.lang3.time.DateUtils;

global Integer nextOrderNumber;


rule "Order number"
when
lectureDTO : LectureDTO ( );
then
lectureDTO.setOrderNumber(nextOrderNumber+1);
lectureDTO.setEndTime(DateUtils.addHours(lectureDTO.getStartTime(),2));
end;

